<svg width="22" height="12" viewBox="0 0 22 12" fill="none" xmlns="http://www.w3.org/2000/svg">
<path d="M12.1369 1.38689C12.3746 1.16057 12.6909 1.03546 13.0191 1.03794C13.3473 1.04043 13.6617 1.17031 13.896 1.4002C14.1303 1.63008 14.2661 1.94198 14.2747 2.27008C14.2834 2.59818 14.1643 2.91682 13.9425 3.15876L7.20937 11.5794C7.09359 11.7041 6.95385 11.8042 6.79851 11.8736C6.64317 11.9431 6.47542 11.9805 6.30529 11.9837C6.13516 11.9868 5.96613 11.9556 5.80833 11.892C5.65053 11.8283 5.50718 11.7335 5.38687 11.6131L0.921741 7.14801C0.797394 7.03214 0.69766 6.89242 0.628486 6.73717C0.559312 6.58192 0.522116 6.41433 0.519118 6.24439C0.51612 6.07446 0.54738 5.90566 0.611034 5.74807C0.674688 5.59047 0.769432 5.44732 0.889614 5.32713C1.0098 5.20695 1.15295 5.11221 1.31055 5.04855C1.46814 4.9849 1.63694 4.95364 1.80687 4.95664C1.97681 4.95964 2.1444 4.99683 2.29965 5.06601C2.4549 5.13518 2.59462 5.23491 2.71049 5.35926L6.24412 8.8912L12.1031 1.42401C12.1136 1.41098 12.1249 1.39859 12.1369 1.38689ZM10.5844 10.0606L12.1369 11.6131C12.2572 11.7332 12.4004 11.8278 12.558 11.8913C12.7157 11.9548 12.8845 11.9859 13.0544 11.9828C13.2244 11.9796 13.3919 11.9423 13.5471 11.873C13.7023 11.8037 13.8419 11.7038 13.9577 11.5794L20.6942 3.15876C20.8152 3.03929 20.9109 2.89665 20.9755 2.73938C21.0402 2.5821 21.0725 2.4134 21.0705 2.24336C21.0686 2.07332 21.0323 1.90542 20.964 1.7497C20.8957 1.59397 20.7967 1.4536 20.6729 1.33699C20.5492 1.22037 20.4032 1.12989 20.2437 1.07095C20.0842 1.01201 19.9144 0.985815 19.7445 0.993937C19.5747 1.00206 19.4082 1.04433 19.255 1.11822C19.1019 1.19212 18.9652 1.29612 18.8531 1.42401L12.9924 8.8912L12.174 8.07107L10.5827 10.0606H10.5844Z" fill="white"/>
</svg>
