<svg width="18" height="18" viewBox="0 0 18 18" fill="none" xmlns="http://www.w3.org/2000/svg">
<path fill-rule="evenodd" clip-rule="evenodd" d="M13.1914 18.0001C12.4911 17.9949 11.7937 17.9069 11.114 17.7381C8.76661 17.1718 6.34938 15.735 4.30868 13.6926C2.26797 11.6501 0.829452 9.23238 0.263087 6.88723C-0.333274 4.42029 0.0920587 2.30975 1.45939 0.942412L1.8498 0.552001C2.20402 0.198493 2.68402 -4.57764e-05 3.18445 -4.57764e-05C3.68489 -4.57764e-05 4.16489 0.198493 4.5191 0.552001L6.76262 2.79507C7.11635 3.14917 7.31504 3.62921 7.31504 4.12972C7.31504 4.63023 7.11635 5.11027 6.76262 5.46438L5.43738 6.78918C6.07269 7.904 6.93679 9.01971 7.95803 10.041C8.97928 11.0622 10.0959 11.9268 11.2103 12.5621L12.5351 11.2368C12.7103 11.0615 12.9184 10.9224 13.1474 10.8276C13.3764 10.7327 13.6218 10.6838 13.8697 10.6838C14.1176 10.6838 14.363 10.7327 14.592 10.8276C14.8211 10.9224 15.0291 11.0615 15.2044 11.2368L17.4474 13.4799C17.8012 13.8339 18 14.3138 18 14.8143C18 15.3148 17.8012 15.7948 17.4474 16.1487L17.0566 16.5392C16.0926 17.5049 14.7584 18.0001 13.1914 18.0001ZM3.18445 1.34223C3.11297 1.34187 3.04213 1.35579 2.97609 1.38315C2.91005 1.41052 2.85014 1.4508 2.79986 1.50161L2.409 1.89202C1.38507 2.91596 1.08599 4.57834 1.56684 6.57024C2.0759 8.68034 3.38637 10.8728 5.2565 12.7425C7.12662 14.6122 9.31865 15.9213 11.4292 16.4321C13.4215 16.913 15.083 16.6139 16.107 15.59L16.4974 15.1996C16.5994 15.0975 16.6567 14.9591 16.6567 14.8148C16.6567 14.6704 16.5994 14.532 16.4974 14.4299L14.2548 12.1869C14.1527 12.0849 14.0143 12.0276 13.8699 12.0276C13.7256 12.0276 13.5872 12.0849 13.4851 12.1869L11.8057 13.8663C11.705 13.9671 11.5747 14.0332 11.4339 14.0551C11.293 14.077 11.1488 14.0535 11.0222 13.9881C9.64549 13.2762 8.25756 12.2397 7.00842 10.9906C5.75929 9.74144 4.72505 8.3544 4.01139 6.97766C3.94585 6.85109 3.92229 6.70695 3.9441 6.56609C3.96591 6.42524 4.03197 6.29498 4.13272 6.19416L5.81256 4.51476C5.91457 4.41268 5.97187 4.27426 5.97187 4.12995C5.97187 3.98563 5.91457 3.84722 5.81256 3.74513L3.56949 1.50161C3.51906 1.45088 3.45905 1.41067 3.39295 1.38331C3.32686 1.35595 3.25599 1.34199 3.18445 1.34223ZM13.9087 9.9264C13.7306 9.9264 13.5598 9.85564 13.4338 9.7297C13.3079 9.60375 13.2371 9.43293 13.2371 9.25482C13.2358 8.07666 12.7672 6.94712 11.9342 6.11399C11.1011 5.28087 9.97166 4.81218 8.7935 4.81076C8.61538 4.81076 8.44456 4.74001 8.31862 4.61406C8.19267 4.48812 8.12192 4.3173 8.12192 4.13918C8.12192 3.96107 8.19267 3.79025 8.31862 3.66431C8.44456 3.53836 8.61538 3.46761 8.7935 3.46761C11.9844 3.46761 14.5803 6.06437 14.5803 9.25482C14.5803 9.43293 14.5095 9.60375 14.3836 9.7297C14.2576 9.85564 14.0868 9.9264 13.9087 9.9264ZM16.2723 9.72964C16.3983 9.85559 16.5691 9.92635 16.7472 9.92635C16.9253 9.92635 17.0962 9.85559 17.2221 9.72964C17.348 9.6037 17.4188 9.43288 17.4188 9.25477C17.4188 4.49865 13.5496 0.629013 8.7935 0.629013C8.61538 0.629013 8.44456 0.699769 8.31862 0.825714C8.19267 0.951659 8.12192 1.12248 8.12192 1.30059C8.12192 1.47871 8.19267 1.64952 8.31862 1.77547C8.44456 1.90141 8.61538 1.97217 8.7935 1.97217C12.8073 1.97217 16.0756 5.23918 16.0756 9.25477C16.0756 9.43288 16.1464 9.6037 16.2723 9.72964Z" fill="#2559D9"/>
</svg>
